Clustering
…
datos = datos %>% 
  mutate(Spiders = if_else(Spiders == "Y", "Si", "No") %>% as.factor)

datos = datos %>% 
  mutate(Edema = factor(Edema, levels = c("Y", "N", "S"), labels = c("Si", "No",
                                                                     "Sin")))

datos = datos %>% 
  mutate(Stage = Stage %>% as.factor)

Observemos que hay muestras que tienen valores desconocidos (NA). Veamos cuales son:

# A tibble: 142 × 20
      ID N_Days Status Drug         Age Sex   Ascites Hepatomegaly Spiders Edema
   <int>  <int> <fct>  <fct>      <int> <fct> <fct>   <fct>        <fct>   <fct>
 1     6   2503 Muerto Placebo    24201 Fema… No      Si           No      No   
 2    14   1217 Muerto Placebo    20535 Male  Si      Si           No      Si   
 3    40   4467 Cens   D-penicil… 17046 Fema… No      No           No      No   
 4    41   1350 Muerto D-penicil… 12285 Fema… No      Si           No      No   
 5    42   4453 Cens   Placebo    12307 Fema… No      Si           Si      No   
 6    45   4025 Cens   Placebo    15265 Fema… No      No           No      No   
 7    49    708 Muerto Placebo    22336 Fema… No      Si           No      No   
 8    53   1000 Muerto D-penicil… 24621 Fema… No      Si           No      No   
 9    58   4459 Cens   D-penicil… 16279 Male  No      No           No      No   
10    70   3458 Cens   D-penicil… 20600 Fema… No      No           No      No   
# ℹ 132 more rows
# ℹ 10 more variables: Bilirubin <dbl>, Cholesterol <int>, Albumin <dbl>,
#   Copper <int>, Alk_Phos <dbl>, SGOT <dbl>, Tryglicerides <int>,
#   Platelets <int>, Prothrombin <dbl>, Stage <fct>

datos = na.omit(datos)
datos

# A tibble: 276 × 20
      ID N_Days Status    Drug      Age Sex   Ascites Hepatomegaly Spiders Edema
   <int>  <int> <fct>     <fct>   <int> <fct> <fct>   <fct>        <fct>   <fct>
 1     1    400 Muerto    D-peni… 21464 Fema… Si      Si           Si      Si   
 2     2   4500 Cens      D-peni… 20617 Fema… No      Si           Si      No   
 3     3   1012 Muerto    D-peni… 25594 Male  No      No           No      Sin  
 4     4   1925 Muerto    D-peni… 19994 Fema… No      Si           Si      Sin  
 5     5   1504 Cens_Trat Placebo 13918 Fema… No      Si           Si      No   
 6     7   1832 Cens      Placebo 20284 Fema… No      Si           No      No   
 7     8   2466 Muerto    Placebo 19379 Fema… No      No           No      No   
 8     9   2400 Muerto    D-peni… 15526 Fema… No      No           Si      No   
 9    10     51 Muerto    Placebo 25772 Fema… Si      No           Si      Si   
10    11   3762 Muerto    Placebo 19619 Fema… No      Si           Si      No   
# ℹ 266 more rows
# ℹ 10 more variables: Bilirubin <dbl>, Cholesterol <int>, Albumin <dbl>,
#   Copper <int>, Alk_Phos <dbl>, SGOT <dbl>, Tryglicerides <int>,
#   Platelets <int>, Prothrombin <dbl>, Stage <fct>
…
